{
  "fileServerFolder": ".",
  "fixturesFolder": "./src/fixtures",
  "integrationFolder": "./src/integration",
  "modifyObstructiveCode": false,
  "pluginsFile": "./src/plugins/index",
  "supportFile": "./src/support/index.ts",
  "video": true,
  "videosFolder": "../../../dist/cypress/admin/videos",
  "screenshotsFolder": "../../../dist/cypress/admin/screenshots",
  "chromeWebSecurity": false
}
